0 info it worked if it ends with ok
1 verbose cli [ '/usr/local/bin/node',
1 verbose cli   '/usr/local/bin/npm',
1 verbose cli   'uninstall',
1 verbose cli   'humanize-distance',
1 verbose cli   '--save' ]
2 info using npm@4.1.2
3 info using node@v7.6.0
4 silly loadCurrentTree Starting
5 silly install loadCurrentTree
6 silly install readLocalPackageData
7 silly install normalizeTree
8 silly loadCurrentTree Finishing
9 silly loadIdealTree Starting
10 silly install loadIdealTree
11 silly cloneCurrentTree Starting
12 silly install cloneCurrentTreeToIdealTree
13 silly cloneCurrentTree Finishing
14 silly loadShrinkwrap Starting
15 silly install loadShrinkwrap
16 silly loadShrinkwrap Finishing
17 silly loadAllDepsIntoIdealTree Starting
18 silly uninstall loadAllDepsIntoIdealtree
19 silly loadAllDepsIntoIdealTree Finishing
20 silly loadIdealTree Finishing
21 silly currentTree tide-tracker
21 silly currentTree ├── @angular/animations@4.0.0
21 silly currentTree ├── @angular/common@4.0.0
21 silly currentTree ├── @angular/compiler@4.0.0
21 silly currentTree ├── @angular/core@4.0.0
21 silly currentTree ├── @angular/forms@4.0.0
21 silly currentTree ├── @angular/http@4.0.0
21 silly currentTree ├── @angular/platform-browser-dynamic@4.0.0
21 silly currentTree ├── @angular/platform-browser@4.0.0
21 silly currentTree ├── @angular/router@4.0.0
21 silly currentTree ├── @types/jasmine@2.5.47
21 silly currentTree ├── adm-zip@0.4.7
21 silly currentTree ├── async@0.1.22
21 silly currentTree ├── balanced-match@0.4.2
21 silly currentTree ├── brace-expansion@1.1.6
21 silly currentTree ├── concat-map@0.0.1
21 silly currentTree ├── dref@0.0.6
21 silly currentTree ├── glob@6.0.4
21 silly currentTree ├── humanize-distance@1.0.9
21 silly currentTree ├── inflight@1.0.6
21 silly currentTree ├── inherits@2.0.3
21 silly currentTree ├── intl@1.2.5
21 silly currentTree ├── minimatch@3.0.3
21 silly currentTree ├── minimist@0.0.8
21 silly currentTree ├── mkdirp@0.5.1
21 silly currentTree ├── nativescript-angular@1.5.1
21 silly currentTree ├── nativescript-dev-android-snapshot@0.0.8
21 silly currentTree ├── nativescript-dev-typescript@0.3.7
21 silly currentTree ├── nativescript-geolocation@0.0.19
21 silly currentTree ├── nativescript-hook@0.2.1
21 silly currentTree ├── nativescript-intl@0.0.10
21 silly currentTree ├── nativescript-theme-core@1.0.3
21 silly currentTree ├── once@1.4.0
21 silly currentTree ├── outcome@0.0.18
21 silly currentTree ├── path-is-absolute@1.0.1
21 silly currentTree ├── plugin@0.3.3
21 silly currentTree ├── punycode@1.3.2
21 silly currentTree ├── querystring@0.2.0
21 silly currentTree ├── reflect-metadata@0.1.10
21 silly currentTree ├── resolve@0.2.8
21 silly currentTree ├── rxjs@5.2.0
21 silly currentTree ├── semver@5.3.0
21 silly currentTree ├── shelljs@0.6.1
21 silly currentTree ├── sift@0.0.18
21 silly currentTree ├── step@0.0.6
21 silly currentTree ├── structr@0.2.4
21 silly currentTree ├── symbol-observable@1.0.4
21 silly currentTree ├── tns-core-modules-widgets@2.5.0
21 silly currentTree ├── tns-core-modules@2.5.2
21 silly currentTree ├── toarray@0.0.1
21 silly currentTree ├── type-component@0.0.1
21 silly currentTree ├── typescript@2.1.6
21 silly currentTree ├── underscore@1.4.4
21 silly currentTree ├── url@0.10.3
21 silly currentTree ├── wrappy@1.0.2
21 silly currentTree └── zone.js@0.8.5
22 silly idealTree tide-tracker
22 silly idealTree ├── @angular/animations@4.0.0
22 silly idealTree ├── @angular/common@4.0.0
22 silly idealTree ├── @angular/compiler@4.0.0
22 silly idealTree ├── @angular/core@4.0.0
22 silly idealTree ├── @angular/forms@4.0.0
22 silly idealTree ├── @angular/http@4.0.0
22 silly idealTree ├── @angular/platform-browser-dynamic@4.0.0
22 silly idealTree ├── @angular/platform-browser@4.0.0
22 silly idealTree ├── @angular/router@4.0.0
22 silly idealTree ├── @types/jasmine@2.5.47
22 silly idealTree ├── adm-zip@0.4.7
22 silly idealTree ├── async@0.1.22
22 silly idealTree ├── balanced-match@0.4.2
22 silly idealTree ├── brace-expansion@1.1.6
22 silly idealTree ├── concat-map@0.0.1
22 silly idealTree ├── dref@0.0.6
22 silly idealTree ├── glob@6.0.4
22 silly idealTree ├── inflight@1.0.6
22 silly idealTree ├── inherits@2.0.3
22 silly idealTree ├── minimatch@3.0.3
22 silly idealTree ├── minimist@0.0.8
22 silly idealTree ├── mkdirp@0.5.1
22 silly idealTree ├── nativescript-angular@1.5.1
22 silly idealTree ├── nativescript-dev-android-snapshot@0.0.8
22 silly idealTree ├── nativescript-dev-typescript@0.3.7
22 silly idealTree ├── nativescript-geolocation@0.0.19
22 silly idealTree ├── nativescript-hook@0.2.1
22 silly idealTree ├── nativescript-intl@0.0.10
22 silly idealTree ├── nativescript-theme-core@1.0.3
22 silly idealTree ├── once@1.4.0
22 silly idealTree ├── outcome@0.0.18
22 silly idealTree ├── path-is-absolute@1.0.1
22 silly idealTree ├── plugin@0.3.3
22 silly idealTree ├── punycode@1.3.2
22 silly idealTree ├── querystring@0.2.0
22 silly idealTree ├── reflect-metadata@0.1.10
22 silly idealTree ├── resolve@0.2.8
22 silly idealTree ├── rxjs@5.2.0
22 silly idealTree ├── semver@5.3.0
22 silly idealTree ├── shelljs@0.6.1
22 silly idealTree ├── sift@0.0.18
22 silly idealTree ├── step@0.0.6
22 silly idealTree ├── structr@0.2.4
22 silly idealTree ├── symbol-observable@1.0.4
22 silly idealTree ├── tns-core-modules-widgets@2.5.0
22 silly idealTree ├── tns-core-modules@2.5.2
22 silly idealTree ├── toarray@0.0.1
22 silly idealTree ├── type-component@0.0.1
22 silly idealTree ├── typescript@2.1.6
22 silly idealTree ├── underscore@1.4.4
22 silly idealTree ├── url@0.10.3
22 silly idealTree ├── wrappy@1.0.2
22 silly idealTree └── zone.js@0.8.5
23 silly generateActionsToTake Starting
24 silly install generateActionsToTake
25 silly generateActionsToTake Finishing
26 silly diffTrees action count 2
27 silly diffTrees remove intl@1.2.5
28 silly diffTrees remove humanize-distance@1.0.9
29 silly decomposeActions action count 2
30 silly decomposeActions remove intl@1.2.5
31 silly decomposeActions remove humanize-distance@1.0.9
32 silly runTopLevelLifecycles Starting
33 silly executeActions Starting
34 silly install executeActions
35 silly doSerial global-install 0
36 silly doParallel fetch 0
37 verbose correctMkdir /Users/admin/.npm/_locks correctMkdir not in flight; initializing
38 verbose lock using /Users/admin/.npm/_locks/staging-e10d4c64f0ab8c49.lock for /Users/admin/projects/tide-tracker/node_modules/.staging
39 silly doParallel extract 0
40 silly doParallel preinstall 0
41 silly doReverseSerial remove 2
42 silly remove /Users/admin/projects/tide-tracker/node_modules/humanize-distance
43 verbose unbuild node_modules/humanize-distance
44 info lifecycle humanize-distance@1.0.9~preuninstall: humanize-distance@1.0.9
45 silly lifecycle humanize-distance@1.0.9~preuninstall: no script for preuninstall, continuing
46 info lifecycle humanize-distance@1.0.9~uninstall: humanize-distance@1.0.9
47 silly lifecycle humanize-distance@1.0.9~uninstall: no script for uninstall, continuing
48 verbose unbuild rmStuff humanize-distance@1.0.9 from /Users/admin/projects/tide-tracker/node_modules
49 info lifecycle humanize-distance@1.0.9~postuninstall: humanize-distance@1.0.9
50 silly lifecycle humanize-distance@1.0.9~postuninstall: no script for postuninstall, continuing
51 silly gentlyRm /Users/admin/projects/tide-tracker/node_modules/humanize-distance is being purged from base /Users/admin/projects/tide-tracker
52 verbose gentlyRm don't care about contents; nuking /Users/admin/projects/tide-tracker/node_modules/humanize-distance
53 silly vacuum-fs purging /Users/admin/projects/tide-tracker/node_modules/humanize-distance
54 silly vacuum-fs quitting because other entries in /Users/admin/projects/tide-tracker/node_modules
55 silly remove /Users/admin/projects/tide-tracker/node_modules/intl
56 verbose unbuild node_modules/intl
57 info lifecycle intl@1.2.5~preuninstall: intl@1.2.5
58 silly lifecycle intl@1.2.5~preuninstall: no script for preuninstall, continuing
59 info lifecycle intl@1.2.5~uninstall: intl@1.2.5
60 silly lifecycle intl@1.2.5~uninstall: no script for uninstall, continuing
61 verbose unbuild rmStuff intl@1.2.5 from /Users/admin/projects/tide-tracker/node_modules
62 info lifecycle intl@1.2.5~postuninstall: intl@1.2.5
63 silly lifecycle intl@1.2.5~postuninstall: no script for postuninstall, continuing
64 silly gentlyRm /Users/admin/projects/tide-tracker/node_modules/intl is being purged from base /Users/admin/projects/tide-tracker
65 verbose gentlyRm don't care about contents; nuking /Users/admin/projects/tide-tracker/node_modules/intl
66 silly vacuum-fs purging /Users/admin/projects/tide-tracker/node_modules/intl
67 silly vacuum-fs quitting because other entries in /Users/admin/projects/tide-tracker/node_modules
68 silly doSerial move 0
69 silly doSerial finalize 0
70 silly doSerial build 0
71 silly doSerial global-link 0
72 silly doParallel update-linked 0
73 silly doSerial install 0
74 silly doSerial postinstall 0
75 verbose unlock done using /Users/admin/.npm/_locks/staging-e10d4c64f0ab8c49.lock for /Users/admin/projects/tide-tracker/node_modules/.staging
76 silly executeActions Finishing
77 silly rollbackFailedOptional Starting
78 silly rollbackFailedOptional Finishing
79 silly runTopLevelLifecycles Finishing
80 silly install saveToDependencies
81 verbose saving []
82 silly install printInstalled
83 verbose exit [ 0, true ]
84 verbose stack Error: write EPIPE
84 verbose stack     at exports._errnoException (util.js:1028:11)
84 verbose stack     at WriteWrap.afterWrite [as oncomplete] (net.js:804:14)
85 verbose cwd /Users/admin/projects/tide-tracker
86 error Darwin 16.4.0
87 error argv "/usr/local/bin/node" "/usr/local/bin/npm" "uninstall" "humanize-distance" "--save"
88 error node v7.6.0
89 error npm  v4.1.2
90 error code EPIPE
91 error errno EPIPE
92 error syscall write
93 error write EPIPE
94 error If you need help, you may report this error at:
94 error     <https://github.com/npm/npm/issues>
95 verbose exit [ 1, true ]
